%YAML 1.1
%TAG !u! tag:unity3d.com,2011:
--- !u!1045 &1
EditorBuildSettings:
  m_ObjectHideFlags: 0
  serializedVersion: 2
  m_Scenes:
  - enabled: 1
    path: Assets/_Tasks/Scenes/_Main.unity
    guid: 399b7c51602d45548b4f933b6999f63d
  - enabled: 1
    path: Assets/_Tasks/Scenes/GameMode0.unity
    guid: 58360c9294995604ca95a51680c9e5fd
  - enabled: 1
    path: Assets/_Tasks/Scenes/GameMode1.unity
    guid: c9df7149031a4b9409e6073cf031e0bb
  - enabled: 1
    path: Assets/_Tasks/Scenes/GameMode2.unity
    guid: b2f00cbd621041749b6c1fd807fbae39
  - enabled: 1
    path: Assets/_Tasks/Scenes/GameMode3.unity
    guid: d3e252c5ecb20304d91a510568bb399a
  - enabled: 1
    path: Assets/_Tasks/Scenes/GameMode4.unity
    guid: c835e755fddc3904bb5edc0b8ae96ac6
  m_configObjects:
    UnityEditor.XR.ARCore.ARCoreSettings: {fileID: 11400000, guid: 6ee72d15cf39dd748a13eac57397b9af,
      type: 2}
    UnityEditor.XR.ARKit.ARKitSettings: {fileID: 11400000, guid: 0465d33c6aee55f44b0237db8b0e0259,
      type: 2}
    com.unity.xr.arfoundation.simulation_settings: {fileID: 11400000, guid: c199e683398494f32b4cde18e73ab731,
      type: 2}
    com.unity.xr.magicleap.magic_leap_settings: {fileID: 11400000, guid: 0b53a025a635a4393ba0b49822242280,
      type: 2}
    com.unity.xr.management.loader_settings: {fileID: 11400000, guid: 3fd4fc0127790db4bae83f7b77da8d45,
      type: 2}
    com.unity.xr.openxr.settings4: {fileID: 11400000, guid: b07c4ba7650be4c25b3d0c497e7e2bb8,
      type: 2}
